[
  {
    "role": "admin",
    "permissions": [
      "createProduct",
      "getByIdProduct",
      "updateProduct",
      "getAllProduct",
      "deleteProduct",
      "createUser",
      "getByRole",
      "updateRole"
    ]
  },
  {
    "role": "customer",
    "permissions": ["getAllProduct"]
  },
  {
    "role": "seller",
    "permissions": ["createUser", "createProduct", "getByIdProduct", "updateProduct", "getAllProduct", "deleteProduct"]
  }
]
